created_date,modified_date,id,name,description,join_link,published,official,group_count,platform_id,coordinates,local_authority_id
2020-03-20 18:20:22.066178+00,2020-03-20 18:20:22.06634+00,b3fc24fe-0380-40fb-b6d5-91d296aae5a9,Warwick and Leamington Covid-19 Help,,http://warwickleamingtoncovidhelp.co.uk/,TRUE,FALSE,,2b447b55-84d9-4345-a2d0-71fa306e8b6c,0101000020E6100000EC18575C1C95F8BFA484059C4A254A40,
2020-03-20 18:20:40.879065+00,2020-03-20 18:20:40.879086+00,3fee36a0-827e-4edf-bec9-c549f708b4d7,Warwick and Leamington Covid-19 Help,,http://warwickleamingtoncovidhelp.co.uk/,TRUE,FALSE,,2b447b55-84d9-4345-a2d0-71fa306e8b6c,0101000020E61000001EC2F869DC5BF9BF999141EE22244A40,
2020-03-20 18:20:04.271869+00,2020-03-20 18:20:04.271914+00,c2262f85-f5a5-4aea-ad69-2f97ad4edf4c,Bath Mutual Aid,,https://www.facebook.com/groups/151925132663139/,TRUE,FALSE,,e4b8b229-f386-43d7-9722-d7efdfcb28b3,0101000020E61000001B00602B57FE02C06D173F32C2B04940,
2020-03-20 18:20:49.950863+00,2020-03-20 18:20:49.950899+00,29579312-69f7-434b-883f-9f5078ce90d1,North Wiltshire - Covid19 Local Aid Group,,https://www.facebook.com/groups/151925132663139/,TRUE,FALSE,,e4b8b229-f386-43d7-9722-d7efdfcb28b3,0101000020E61000003B55BE6724E2FFBF5DE38E92B2AC4940,
2020-03-20 18:20:07.918562+00,2020-03-20 18:20:07.918612+00,d0eaa10e-efb1-4540-9256-3cea17b586fb,County Durham Covid-19 Mutual Aid,,https://www.facebook.com/groups/1821040734696569/,TRUE,FALSE,,e4b8b229-f386-43d7-9722-d7efdfcb28b3,0101000020E6100000F3A908DC5F62FCBFB61FDF94A8574B40,45
2020-03-20 18:20:31.242274+00,2020-03-20 18:20:31.242308+00,89e987fc-cad7-4770-92b4-44a23acd8123,County Durham Covid-19 Mutual Aid,,https://www.facebook.com/groups/1821040734696569/,TRUE,FALSE,,e4b8b229-f386-43d7-9722-d7efdfcb28b3,0101000020E6100000C90050C58D5BF9BFAC1C5A643B634B40,
2020-03-20 18:20:18.404521+00,2020-03-20 18:20:18.404561+00,48988ef8-873c-4140-9877-c79f0ed4210f,Rye Mutual Aid Group,,https://www.facebook.com/groups/200634987866771/,TRUE,FALSE,,e4b8b229-f386-43d7-9722-d7efdfcb28b3,0101000020E610000088218326D372E73F4470B77FC0794940,
2020-03-20 18:20:50.244903+00,2020-03-20 18:20:50.24494+00,d14244a9-29bf-4083-bc26-0eea456170d0,Rye Mutual Aid Group,,https://www.facebook.com/groups/200634987866771/,TRUE,FALSE,,e4b8b229-f386-43d7-9722-d7efdfcb28b3,0101000020E610000047C49448A297E73FF25F200890794940,
2020-03-20 18:20:17.027126+00,2020-03-20 18:20:17.027163+00,0a764937-f769-44d0-b7e5-8588539e38eb,Oxford covid-19 community support,,https://www.facebook.com/groups/202604247629195,TRUE,FALSE,,e4b8b229-f386-43d7-9722-d7efdfcb28b3,0101000020E610000075029A081B9EF4BF3737A6272CE94940,
2020-03-20 18:20:17.042495+00,2020-03-20 18:20:17.042531+00,56a2c0f6-c7a8-4ac0-80a7-75c26beaa637,Oxford Covid-19 Mutual Aid,,https://www.facebook.com/groups/202604247629195,TRUE,FALSE,,e4b8b229-f386-43d7-9722-d7efdfcb28b3,0101000020E6100000106E7C372720F4BFF0541BF741E04940,195
2020-03-20 18:20:05.052039+00,2020-03-20 18:20:05.052096+00,eb4758f0-812e-4ccd-8d32-8bc0845fef33,Brent Covid 19 Mutual Aid,,https://www.facebook.com/groups/202723577488723/,TRUE,FALSE,,e4b8b229-f386-43d7-9722-d7efdfcb28b3,0101000020E61000005F8143030CA6D1BF0DD29D712BC84940,
2020-03-20 18:20:05.065537+00,2020-03-20 18:20:05.065576+00,d48cc7a2-d2cd-4734-9188-8b2330288bbc,Brent Covid-19 Mutual Aid Group,,https://www.facebook.com/groups/202723577488723/,TRUE,FALSE,,e4b8b229-f386-43d7-9722-d7efdfcb28b3,0101000020E61000005F8143030CA6D1BF0DD29D712BC84940,
2020-03-20 18:20:14.555607+00,2020-03-20 18:20:14.55566+00,8006b054-4282-4b74-b874-0d3940097697,Lambeth Covid 19 Mutual Aid,,https://www.facebook.com/groups/214918153220011/,TRUE,FALSE,,e4b8b229-f386-43d7-9722-d7efdfcb28b3,0101000020E6100000B6F63E558506BEBF08B941A32AC04940,
2020-03-20 18:20:14.57803+00,2020-03-20 18:20:14.578069+00,ffd8b953-a237-4d8a-bd90-4c3a0efc698b,Lambeth Covid-19 Mutual Aid Group,,https://www.facebook.com/groups/214918153220011/,TRUE,FALSE,,e4b8b229-f386-43d7-9722-d7efdfcb28b3,0101000020E61000001B90CE0A56E6BDBF9F550B9178BA4940,
2020-03-20 18:20:23.55552+00,2020-03-20 18:20:23.555558+00,1c10cd34-d86d-44ab-8e3e-a868342e60ba,York (x25 regions) COVID-19 Volunteers,,https://www.facebook.com/groups/217818466291732/announcements/,TRUE,FALSE,,e4b8b229-f386-43d7-9722-d7efdfcb28b3,0101000020E61000001B182FCCF84DF1BF43C6A354C2FA4A40,14
2020-03-20 18:20:23.608451+00,2020-03-20 18:20:23.608494+00,5cbadf77-9428-455a-abc4-5caf2cda0da7,York Covid-19 Volunteers,,https://www.facebook.com/groups/217818466291732/announcements/,TRUE,FALSE,,e4b8b229-f386-43d7-9722-d7efdfcb28b3,0101000020E61000001B182FCCF84DF1BF43C6A354C2FA4A40,14
2020-03-20 18:20:05.330728+00,2020-03-20 18:20:05.33077+00,b7af66fa-beff-4e40-bbda-8ef1fcc2127c,BS7 Bristol Coid Help and Response,,https://www.facebook.com/groups/220811902446205/,TRUE,FALSE,,e4b8b229-f386-43d7-9722-d7efdfcb28b3,0101000020E61000004E999B6F44C704C02AEDC33016BA4940,
2020-03-20 18:20:05.34486+00,2020-03-20 18:20:05.344898+00,d9e391cc-8795-4c61-98d5-7910d154d6ca,BS7 Covid-19 Help and Response,,https://www.facebook.com/groups/220811902446205/,TRUE,FALSE,,e4b8b229-f386-43d7-9722-d7efdfcb28b3,0101000020E61000004E999B6F44C704C02AEDC33016BA4940,
2020-03-20 18:20:05.817614+00,2020-03-20 18:20:05.81765+00,ef214eea-8bd0-4eb8-858d-e7b3e41e4ee5,Carmarthen & South Pembrokeshire,,https://www.facebook.com/groups/231551228021854/,TRUE,FALSE,,e4b8b229-f386-43d7-9722-d7efdfcb28b3,0101000020E6100000C3EC0A22F7D112C07D6F1D2D18D64940,
2020-03-20 18:20:05.854907+00,2020-03-20 18:20:05.854945+00,7edc9ebd-e25e-4477-a42e-e5ef70b787f3,Carms west & South Pembrokeshire Covid 19 Support group,,https://www.facebook.com/groups/231551228021854/,TRUE,FALSE,,e4b8b229-f386-43d7-9722-d7efdfcb28b3,0101000020E61000002C4A09C1AAAA13C0B77988EBBDEA4940,368
2020-03-20 18:20:09.142819+00,2020-03-20 18:20:09.142866+00,0dc66be3-68fa-43e0-9bf8-867a29fac753,COVID-19 Mutual Aid Matlock Area,,https://www.facebook.com/groups/244089749944661,TRUE,FALSE,,e4b8b229-f386-43d7-9722-d7efdfcb28b3,0101000020E6100000B61F3A4E1BDFF8BF0CE5E90198914A40,
2020-03-20 18:20:15.70723+00,2020-03-20 18:20:15.707269+00,7557e47d-2e23-46fc-bd06-00de78a0bca2,Matlock Area COVID-19 Mutual Aid Group,,https://www.facebook.com/groups/244089749944661,TRUE,FALSE,,e4b8b229-f386-43d7-9722-d7efdfcb28b3,0101000020E6100000B61F3A4E1BDFF8BF0CE5E90198914A40,
2020-03-20 18:20:10.416613+00,2020-03-20 18:20:10.416651+00,85d16f65-b0b0-4404-b591-e27dc3dff02f,COVID19/Coronavirus BS10 mutual help group,,https://www.facebook.com/groups/2586699761568664/,TRUE,FALSE,,e4b8b229-f386-43d7-9722-d7efdfcb28b3,0101000020E61000004E999B6F44C704C02AEDC33016BA4940,
2020-03-20 18:20:10.479424+00,2020-03-20 18:20:10.479453+00,90b520f3-b050-4369-932e-f926e38bb8fb,COVID19/Coronavirus BS10 mutual help group,,https://www.facebook.com/groups/2586699761568664/,TRUE,FALSE,,e4b8b229-f386-43d7-9722-d7efdfcb28b3,0101000020E61000004E999B6F44C704C02AEDC33016BA4940,
2020-03-20 18:20:04.411209+00,2020-03-20 18:20:04.411249+00,7700aa3c-32ac-43f7-8ecb-6db652ab7cef,Beeston Chilwell Area Mutual Aid Group,,https://www.facebook.com/groups/262907364704981/,TRUE,FALSE,,e4b8b229-f386-43d7-9722-d7efdfcb28b3,0101000020E61000004B4A308B3F80F3BFCDC75AE8EF744A40,
2020-03-20 18:20:04.426546+00,2020-03-20 18:20:04.426571+00,a81afcba-401b-4c06-b5fa-b402b39d108d,Beeston Chilwell Area Mutual Aid Gtoup,,https://www.facebook.com/groups/262907364704981/,TRUE,FALSE,,e4b8b229-f386-43d7-9722-d7efdfcb28b3,0101000020E6100000703C44488275F3BFA861AEFB7D764A40,
2020-03-20 18:20:04.77262+00,2020-03-20 18:20:04.772655+00,76bb8b88-afc9-4742-953f-ddce164ff4b8,Birmingham Community Solidarity: Coronavirus Response,,https://www.facebook.com/groups/3234138479933658/,TRUE,FALSE,,e4b8b229-f386-43d7-9722-d7efdfcb28b3,0101000020E6100000873E0E396C71FEBF6CF58BC8663D4A40,272
2020-03-20 18:20:04.78712+00,2020-03-20 18:20:04.787158+00,eabaf136-fb77-4a10-99ce-453febeaf9be,Birmingham Mutual Aid and Covid-19 Community Response Group,,https://www.facebook.com/groups/3234138479933658/,TRUE,FALSE,,e4b8b229-f386-43d7-9722-d7efdfcb28b3,0101000020E6100000873E0E396C71FEBF6CF58BC8663D4A40,272
2020-03-20 18:20:22.21886+00,2020-03-20 18:20:22.218916+00,c682fdbf-0bec-4cfe-9475-7eb73430fc6a,Watford & Bushey Coronavirus Mutual Aid,,https://www.facebook.com/groups/501479503877322/,TRUE,FALSE,,e4b8b229-f386-43d7-9722-d7efdfcb28b3,0101000020E610000032C9C859D853D9BF865AD3BCE3D34940,127
2020-03-20 18:20:22.254442+00,2020-03-20 18:20:22.254494+00,391f458a-1286-4cdb-a4d7-219325d992f0,Watford & Bushey Coronavirus Mutual Aid,,https://www.facebook.com/groups/501479503877322/,TRUE,FALSE,,e4b8b229-f386-43d7-9722-d7efdfcb28b3,0101000020E610000032C9C859D853D9BF865AD3BCE3D34940,
2020-03-20 18:20:05.367753+00,2020-03-20 18:20:05.367807+00,e711a8c6-47cd-463f-bcb0-1d813d7c2acf,BS8 Covid-19 Support group,,https://www.facebook.com/groups/549575592341916/,TRUE,FALSE,,e4b8b229-f386-43d7-9722-d7efdfcb28b3,0101000020E61000004E999B6F44C704C02AEDC33016BA4940,
2020-03-20 18:20:05.386624+00,2020-03-20 18:20:05.386665+00,8488602b-6d1f-452e-b113-2518b9460db9,BS8 covid-19 support group,,https://www.facebook.com/groups/549575592341916/,TRUE,FALSE,,e4b8b229-f386-43d7-9722-d7efdfcb28b3,0101000020E61000004E999B6F44C704C02AEDC33016BA4940,
2020-03-20 18:20:06.898007+00,2020-03-20 18:20:06.89803+00,79bb4f63-de80-4b7b-a6cd-5c068e1ce4df,Coronaheroes,,https://www.facebook.com/groups/585056092098186/,TRUE,FALSE,,e4b8b229-f386-43d7-9722-d7efdfcb28b3,0101000020E6100000D8B628B341E601C06F8104C58FBD4A40,
2020-03-20 18:20:06.911123+00,2020-03-20 18:20:06.911156+00,4c7a26aa-e5f5-49fa-b824-f890b552061e,Coronaheroes,,https://www.facebook.com/groups/585056092098186/,TRUE,FALSE,,e4b8b229-f386-43d7-9722-d7efdfcb28b3,0101000020E61000005E503AEC195DF5BFFFC41220548A4A40,
2020-03-20 18:20:18.137591+00,2020-03-20 18:20:18.137616+00,bc958f5e-1b2d-4926-902b-8c43aaf07c8b,Rochdale Area Covid-19 Aid Group,,https://www.facebook.com/groups/585056092098186/,TRUE,FALSE,,e4b8b229-f386-43d7-9722-d7efdfcb28b3,0101000020E61000005538DD0DFD3E01C06CC94F4FC4CE4A40,
2020-03-20 18:20:18.154756+00,2020-03-20 18:20:18.154847+00,07bd65f5-8bd9-4608-8d90-095311036cc3,"Rochdale,Heywood and Middleton Corona heroes",,https://www.facebook.com/groups/585056092098186/,TRUE,FALSE,,e4b8b229-f386-43d7-9722-d7efdfcb28b3,0101000020E61000005538DD0DFD3E01C06CC94F4FC4CE4A40,253
2020-03-20 18:20:08.086564+00,2020-03-20 18:20:08.086615+00,dea6fb09-d7d7-4e28-937b-bdb4dc492e66,Covid 19 Mutual aid Bearwood Sandwell (West Midlands) UK,,https://www.facebook.com/groups/647032279173318/,TRUE,FALSE,,e4b8b229-f386-43d7-9722-d7efdfcb28b3,0101000020E610000009CAC8B49186FFBFDDCDF863FF3C4A40,
2020-03-20 18:20:10.278789+00,2020-03-20 18:20:10.27884+00,c2f4e934-88c4-438c-bd97-23afaeb496c7,Covid19 mutual aid Bearwood Sandwell (west midlands) UK,,https://www.facebook.com/groups/647032279173318/,TRUE,FALSE,,e4b8b229-f386-43d7-9722-d7efdfcb28b3,0101000020E6100000383DDE9A2A6EFFBFA0EFB8F2A3404A40,
2020-03-20 18:20:08.794739+00,2020-03-20 18:20:08.794788+00,73a795e0-cafd-49c5-80af-669f8a4d67c9,Covid-19 Mutual Aid (Jesmond),,https://www.facebook.com/groups/823117514823281/,TRUE,FALSE,,e4b8b229-f386-43d7-9722-d7efdfcb28b3,0101000020E6100000462E933C32B1F9BF5F10EC53E97E4B40,
2020-03-20 18:20:24.637865+00,2020-03-20 18:20:24.637906+00,f5418944-eff2-41ef-a60f-6ed3b965a5fe,COVID-19 Mutual Aid Jesmond,,https://www.facebook.com/groups/823117514823281/,TRUE,FALSE,,e4b8b229-f386-43d7-9722-d7efdfcb28b3,0101000020E61000009D2B4A09C1AAF9BFE04735ECF77E4B40,
2020-03-20 18:20:08.281009+00,2020-03-20 18:20:08.281047+00,d9252463-b0e7-4061-9957-937247c0b886,COVID 19 North East Hampshire Neighbourhood Support Group,,https://www.facebook.com/groups/824425101411492/,TRUE,FALSE,,e4b8b229-f386-43d7-9722-d7efdfcb28b3,0101000020E6100000120DF736A220E8BF6C1A25F95BA54940,
2020-03-20 18:20:10.302985+00,2020-03-20 18:20:10.303022+00,f8c4ace2-e230-42e5-9ac4-9732428f87d3,COVID19 North East Hampshire Support Group,,https://www.facebook.com/groups/824425101411492/,TRUE,FALSE,,e4b8b229-f386-43d7-9722-d7efdfcb28b3,0101000020E6100000120DF736A220E8BF6C1A25F95BA54940,
2020-03-20 18:20:19.514499+00,2020-03-20 18:20:19.514549+00,8160c23b-701a-44b9-84f0-e0fd9831c597,Southwark Mutual Aid Covid 19,,https://www.facebook.com/groups/833177740485170/,TRUE,FALSE,,e4b8b229-f386-43d7-9722-d7efdfcb28b3,0101000020E61000000C738236397CBABF58B730C15FC04940,
2020-03-20 18:20:20.483675+00,2020-03-20 18:20:20.48371+00,9b8d91dc-5f02-4fce-a8ab-38e15f2c1ed3,Surrey Docks Mutual Aid COVID19 support group (subgroup of Southwark group),,https://www.facebook.com/groups/833177740485170/,TRUE,FALSE,,e4b8b229-f386-43d7-9722-d7efdfcb28b3,0101000020E61000000C738236397CBABF58B730C15FC04940,
2020-03-20 18:20:05.983167+00,2020-03-20 18:20:05.983188+00,f350761b-eb56-40f5-9460-d7ed4fe71df8,Ceredigion Coronavirus Support,,https://www.facebook.com/groups/CeredigionCoronavirusSupport/,TRUE,FALSE,,e4b8b229-f386-43d7-9722-d7efdfcb28b3,0101000020E6100000ED58B620A55310C07FEE152708354A40,
2020-03-20 18:20:05.995917+00,2020-03-20 18:20:05.995952+00,26787a1c-20f1-496d-a829-c144a275489f,Ceredigion Coronavirus Support,,https://www.facebook.com/groups/CeredigionCoronavirusSupport/,TRUE,FALSE,,e4b8b229-f386-43d7-9722-d7efdfcb28b3,0101000020E610000002B7EEE6A99E0FC05C4DE83FB5254A40,367
2020-03-20 18:20:12.403313+00,2020-03-20 18:20:12.403354+00,b6eaa2ac-6b97-415d-ba24-216dd5bf90f3,Greenwich Covid 19 Mutual Aid Group,,https://www.facebook.com/groups/GreenwichCovid19MutualAid/,TRUE,FALSE,,e4b8b229-f386-43d7-9722-d7efdfcb28b3,0101000020E610000095EC7D4F519A72BF4AB4E4F1B4BD4940,
2020-03-20 18:20:12.570202+00,2020-03-20 18:20:12.57025+00,ff7a9fb1-980f-47a5-ad48-c315f114a381,Greenwich Covid-19 Mutual Aid,,https://www.facebook.com/groups/GreenwichCovid19MutualAid/,TRUE,FALSE,,e4b8b229-f386-43d7-9722-d7efdfcb28b3,0101000020E610000095EC7D4F519A72BF4AB4E4F1B4BD4940,
2020-03-20 18:20:13.056381+00,2020-03-20 18:20:13.056555+00,41511f4e-ec98-46e2-a367-197bde8573c2,Haymill Coronavirus Support Group,,https://www.facebook.com/groups/HaymillCV/,TRUE,FALSE,,e4b8b229-f386-43d7-9722-d7efdfcb28b3,0101000020E61000009A0EF857EAB4E4BFF5FB5987FEC24940,
2020-03-20 18:20:40.582294+00,2020-03-20 18:20:40.582319+00,1a5e7643-1dea-42ac-8a17-de052d87e21c,Haymill Coronavirus Support Group,,https://www.facebook.com/groups/HaymillCV/,TRUE,FALSE,,e4b8b229-f386-43d7-9722-d7efdfcb28b3,0101000020E610000099F1B6D26BF307C040BFEFDFBC9E4940,