{
  "cordova-plugin-whitelist": {
    "source": {
      "type": "registry",
      "id": "cordova-plugin-whitelist@1"
    },
    "is_top_level": true,
    "variables": {}
  },
  "cordova-plugin-appcenter-push": {
    "source": {
      "type": "registry",
      "id": "cordova-plugin-appcenter-push"
    },
    "is_top_level": true,
    "variables": {}
  },
  "cordova-plugin-appcenter-shared": {
    "source": {
      "type": "registry",
      "id": "cordova-plugin-appcenter-shared@0.4.1"
    },
    "is_top_level": false,
    "variables": {}
  },
  "cordova-plugin-code-push": {
    "source": {
      "type": "registry",
      "id": "cordova-plugin-code-push"
    },
    "is_top_level": true,
    "variables": {}
  },
  "code-push": {
    "source": {
      "type": "registry",
      "id": "code-push@3.0.1"
    },
    "is_top_level": false,
    "variables": {}
  },
  "cordova-plugin-dialogs": {
    "source": {
      "type": "registry",
      "id": "cordova-plugin-dialogs@>=1.1.1"
    },
    "is_top_level": false,
    "variables": {}
  },
  "cordova-plugin-device": {
    "source": {
      "type": "registry",
      "id": "cordova-plugin-device@>=1.1.0"
    },
    "is_top_level": false,
    "variables": {}
  },
  "cordova-plugin-file": {
    "source": {
      "type": "registry",
      "id": "cordova-plugin-file@4.3.3"
    },
    "is_top_level": true,
    "variables": {}
  },
  "cordova-plugin-compat": {
    "source": {
      "type": "registry",
      "id": "cordova-plugin-compat@^1.0.0"
    },
    "is_top_level": false,
    "variables": {}
  },
  "cordova-plugin-file-transfer": {
    "source": {
      "type": "registry",
      "id": "cordova-plugin-file-transfer@1.6.3"
    },
    "is_top_level": true,
    "variables": {}
  },
  "cordova-plugin-zip": {
    "source": {
      "type": "registry",
      "id": "cordova-plugin-zip@3.1.0"
    },
    "is_top_level": true,
    "variables": {}
  }
}